羅烏王國王女，赫露米娜·馮·羅烏在王城的陽台上仰望天空。



紅色的淨化的太陽依然在中天照耀。

可是就在剛才。

金黃色的光從厚厚烏雲的縫隙中射出。

那正如傳說中的現象。

天劍顯現真正姿態的時候，天空將被染成黃金―――



「埃爾維斯大人……！」



所以，她確信了。

他勝利了。

魔王被打倒了。

世界―――被拯救了。







數分鐘後。



淨化的太陽閃閃發光。







轟鳴聲。

衝擊。

這一切都落後於破壞。

唯一領先的是光。

所以赫露米娜只知道『發光了』。



大地被翻起。

河流、森林、山、街道。

被從天而降的光和風壓碎。



赫露米娜一直相信到最後。

埃爾維斯會贏。

他會回來。

和他結婚―――







◆◆◆―――――――◆◆◆―――――――◆◆◆







同樣的事情。



在世界上所有地方都發生了。



全都是一瞬間。



在僅僅一次的閃光後。



厚厚的烏雲消散了。



雨聲平靜，群星出現。



就這樣，夜晚被取回。



可是。



沒有東西從地上仰望它。







◆◆◆―――――――◆◆◆―――――――◆◆◆







戴姆庫爾德惑島的一隅。

作為魔王後宮的舊利巴伯爵邸一帶，地面上到處都是巨大的龜裂。



曾經被傑克、菲爾和瑞秋用作修行，被岩漿燒盡了的森林，其地面也變得支離破碎。

龜裂也延伸到長著五顏六色花朵的庭院，將那一切都吞沒掉了。



失去地基的房子，迅速失去安定，開始顫抖倒塌。

樑柱接二連三地破碎倒下，在那之中，有一個少女在哭喊。



「什、什麼啊……！！　什麼啊！！　誰來……！！　誰來救救我啊啊啊啊啊啊……！！」



布拉斯塔一邊躲避著傾注的瓦礫，一邊向著聲音的方向奔跑。

當布拉斯塔拚命掙扎著到達那裡時，聲音的主人――戴娜的臉啪地亮了。



「布拉斯塔！！　救我……來救我了嗎！？」



「……是的。沒錯喲～、戴娜さん……」



「啊啊……！」



布拉斯塔緊緊抱住抱著自己的戴娜。

布拉斯塔知道她們無處可逃。

布拉斯塔知道她幫不上忙。

即使如此，她還是溫柔地抱著戴娜的後背。



「沒關係～。有咱家跟著喲，戴娜さん……」



「太好了……！　太好了呢。我還以為會變成怎樣呢―――」



布拉斯塔直到最後都沒有說出真相。

事情辦完了自己們就會被處理掉的事。

魔王說去後宮是為了便於處理的事。



不可能有的夢。

不可能有的希望。

就這樣讓所愛的少女抱著自己―――





瓦礫堆積。

悲鳴消失了。





隨著地面瓦解，舊利巴伯爵邸也消失在遙遠的地面上。

被安置在正妻室的棺材也是。

棺材中保存著的某位少女的遺體也是。



―――所有的一切，都被捨棄到死亡的世界。







◆◆◆―――――――◆◆◆―――――――◆◆◆







靜寂滿溢―――



村莊崩潰了。



街道崩壞了。



國家終結了。



一切文明都毀滅了。



在天空漂浮著的少許島嶼除外。



―――人類滅亡了。



―――世界終結了。







◆◆◆―――――――◆◆◆―――――――◆◆◆







才想著雲海突然就消散了，就發現地上已經死亡。

僅限於視野內，世界的殘骸蔓延著。

正因為是擁有『王眼』的埃爾維斯，才能比其他三人更正確地理解到那個事實。



所有人都死了。

作為父親的拉埃斯國王死了。

作為婚約者的赫露米娜死了。

地上已經沒有倖存者了。



天劍從他手中滑落。

薄如蟬翼的通透劍身，像謊言一樣簡單地破碎四散。



（―――――――――――――――――――――――――――――――――――――――――――――――――――――――――――――――――――――――――――――――――――――――――――――――――――――――――――――――――――――――――――――――――――）



他這個存在，只是停止了。

不是悲歎不已。

不是陷於絕望。

是真正被擊垮的人的末路。



「結束了」



魔王宣告。

勇者們沒有動。

只有黃昏色的劍被無慈悲地揮舞。



蓋恩的盾被兩斷。

鎧甲被撕裂。

他巨大的身體被斜向斬裂，鮮紅的血大量飛散。



蓋恩咚的倒下。

血泊在擴散。



連臨終哭喊都沒有。

蓋恩不動了。

不動了。



「啊啊……啊啊啊啊啊啊啊啊啊啊……！！！」



露比一邊發出不知是呻吟還是哭泣的聲音，一邊向蓋恩跑去。

搖啊。

搖啊。

蓋恩不動。



就算這樣也繼續搖著。

從這樣的她的胸口、

長出了黃昏色的劍尖。



黃昏色的劍從背後刺穿了露比的心臟。



「如果有來世的話，稍微坦率些吧」



露比像疊在蓋恩身上一樣倒下了。

她不動了。

和蓋恩一樣。

不動了。



「……傑……克……」



亞澤麗雅搖搖晃晃地站了起來。



「……傑克……傑克……！！」



她一邊喊著魔王的名字一邊伸出手。

雖然知道他已經不在那裡了。

但還是尋求著所愛少年的名字，伸出手―――



黃昏色的劍刺入她的腹部。

她紅色的長袍上更進一步染上紅色。

即使如此，她還是在前進。

不管劍深深地插入體內，向魔王的臉伸出手。



「…………傑、克…………」



指尖。

碰到了魔王的臉頰。



魔王連眉毛都不動一下。

僅僅是無言地、

拔出劍。



大量的血流到亞澤麗雅腳下。

仿彿沉入其中般。

她倒下了。





然後，只剩一人。



看都不看沉入血泊的亞澤麗雅，魔王在勇者身邊舉起了劍。





「……再見」



魔王最後編織出的。

一定是傑克·利巴最後的話。



「和你們一起的學院生活……真的、很開心」



黃昏色的劍刃被甩下。

勇者埃爾維斯的頭，不費吹灰之力飛上天空。

然後軲轆軲轆地在地面上滾動，停止。

失去頭部的身體倒下了。



埃爾維斯不動了。

不動了。



已經永遠不再動了。







◆◆◆―――――――◆◆◆―――――――◆◆◆







就這樣―――

取得勝利的魔王，從過去有著居城的場所，俯視世界。



所謂的世界，並不是指曾經各種各樣的國家繁榮著的地面。

而是由浮游在天空的複數島嶼組成的世界——

戴姆庫爾德。



從今天開始，這個國家將成為世界成為宇宙。

由此，取名惑島。

由此，取名衛星島。

如果把再也不會有人居住的大地比作恆星，這是很自然的命名。



魔王確認自己最後剩下的東西。

撿到的所有能撿的生命。

還有就是，親眼看著稍微剩下的人類慢慢腐朽。



作為人的尊嚴、幸福，已經不需要了。

他將作為魔王這個機構管理世界。

直到真正的末日到來。





這就是傑克·利巴選擇的結局。
